{
  "data": [
    {
      "id": 1,
      "accion": "crear",
      "tabla": "compras",
      "registro_id": 48,
      "usuario": { "nombre": "Admin General" },
      "created_at": "2026-07-18T10:30:00Z"
    },
    {
      "id": 2,
      "accion": "actualizar",
      "tabla": "proveedores",
      "registro_id": 5,
      "usuario": { "nombre": "Admin General" },
      "created_at": "2026-07-18T09:15:00Z"
    },
    {
      "id": 3,
      "accion": "eliminar",
      "tabla": "materiales",
      "registro_id": 12,
      "usuario": { "nombre": "Admin General" },
      "created_at": "2026-07-17T16:45:00Z"
    }
  ],
  "current_page": 1,
  "last_page": 3,
  "total": 45,
  "per_page": 15
}
